﻿Quartier;Nom;Téléphone (ajouter le préfixe +225 si vous êtes hors de la Côte d'Ivoire);Informations additionnelles
 ABOBO;ABRAHAM OPTIQUE; 07 07 23 66 43; Abobo N'dotré - carrefour eaux et forêts
 ABOBO;CABINET DENTAIRE ADOU GEORGES; 07 07 73 66 55; Quartier Commerce - Immeuble Haddad - en face du CHR
 ABOBO;CABINET DENTAIRE DE L’ESPACE MEDICAL LE SPHINX; 25 24 00 58 62 / 07 08 34 37 63; Au sein de l’espace Médical le Sphinx
 ABOBO;CABINET DENTAIRE POLYCLINIQUE D'ABOBO; 01 41 16 68 70; Route d'Abobo par le Zoo - en face de La Pharmacie d'Abobo-Té
 ABOBO;CABINET DENTAIRE ST MICHEL ARCHANGE; 05 06 73 15 73; Soghefia - près du camp commando
 ABOBO;CENTRE MEDICAL SAINT MICHEL ARCHANGE; 07 07 86 60 87 / 07 08 73 15 73; Abobo Soghefia Près du Camp Commando
 ABOBO;CENTRE MEDICO-SOCIAL EL RAPHA; 07 48 33 59 79; Abobo Coco service - en venant d'Adjamé
 ABOBO;CHANAN OPTIC; 07 09 22 43 97; Abobo - quartier N'Dotré
 ABOBO;CLINIQUE MEDICALE LES GRACES; 07 07 71 17 07 / 01 01 03 71 86; Au feu de Anonkoi Kouté
 ABOBO;CLINIQUE MEDICO-CHIRURGICALE RHAMA; 07 07 49 46 73; Route d'Anyama à côté de la Mosquée blanche
 ABOBO;ESPACE MEDICAL LE SPHINX; 25 24 00 58 62 / 07 08 34 37 63; Abobo N'dotre - en face de la station Shell
 ABOBO;GRAND CENTRE MEDICAL DE LA ROUTE AKEIKOI; 27 24 49 76 40; Abobo - Route d'Akeikoi
 ABOBO;GRANDE CLINIQUE DU DOKUI; 27 24 39 48 33 / 05 05 94 18 18; En face de la pharmacie Aboboté
 ABOBO;OPTICIENS VISAGISTES; 25 24 01 14 17 / 07 07 39 06 78; Abobo - Carrefour 1ere boutique - à 150m de la CIE - Plateau Dokui
 ABOBO;POLYCLINIQUE CENTRALE D'ABOBO; 07 58 99 84 70; Route Abobo - samanke en face de la pharmacie Aboboté
 ADJAME;CABINET D'OPHTALMOLOGIE LA LUCIOLE; 07 07 35 35 85; En face de la maternité marie Thérèse d'Adjamé
 ADJAME;CABINET DENTAIRE D'ANYAMA; 07 07 08 37 66; Quartier Commerce
 ADJAME;CABINET DENTAIRE DE HOPE ROAD HOSPITAL; 27 20 37 06 52 / 07 48 42 06 25; Route du zoo juste après le carrefour Williamsville
 ADJAME;CABINET DENTAIRE DELORVIE; 27 20 37 24 31; Près de fraternité matin
 ADJAME;CABINET DENTAIRE LIBERTE; 27 20 37 25 57; Boulevard De Gaulle - immeuble GESCI - 220 logements
 ADJAME;CLINIQUE ESPOIR DE PAILET; 07 48 88 00 24 / 01 41 78 41 41; Adjame paillet maison blanche - route du zoo
 ADJAME;CLINIQUE MEDICALE ADJAME LIBERTE; 01 41 49 85 05 / 01 41 49 85 10; Adjame 220 logements - à côté de la pharmacie le bélier
 ADJAME;ESPACE MEDICAL LA CITADELLE; 27 20 33 53 60 / 07 07 88 73 83; En face de la mairie d’Adjamé
 ADJAME;FRATERNITE VISION; 27 20 37 01 74 / 07 08 98 17 14; Abidjan (Adjamé)
 BINGERVILLE;HOPITAL MERE-ENFANT; 27 20 51 15 00; A côté de l'hôpital psychiatrique
 BINGERVILLE;SOCIETE MEDICALE LES PERLES; 27 22 40 10 11 / 07 67 85 26 89; A l'entrée de Bingerville - après la cite FEH Kessé
 COCODY;ALAIN AFFLELOU COCODY; 27 22 41 62 52; Abidjan (Cocody - Marcory)
 COCODY;AMITIE OPTIQUE COCODY; 27 20 21 40 99 / 07 07 56 38 52; Abidjan (Plateau - Cocody)
 COCODY;ANOPTIC RIVIERA; 27 21 26 20 93 / 07 58 55 55 19; Abidjan (Riviera - Yopougon) Daloa
 COCODY;CABINET DE KINESITHERAPIE DE LA POLYCLINIQUE DES II PLATEAUX; 27 22 41 33 20 / 27 22 41 33 34; Au sein de la polyclinique des II plateaux Cocody
 COCODY;CABINET DE RHUMATOLOGIE HOURYA; 07 07 37 55 46; Résidence latrille - bloc B - bat I - appart n°100 - II plateaux - Aghien
 COCODY;CABINET DE RHUMATOLOGIE HOURYA; 07 07 37 55 46; Résidence latrille - bloc B - bat I appart n°100 - II plateaux Aghien
 COCODY;CABINET DENTAIRE 9 TRANCHE; 27 22 50 29 62; Vers la CNPS Angré 9ème tranche
 COCODY;CABINET DENTAIRE AGOH; 27 22 44 24 95; 2 Plateaux les Vallons à 20 mètres de la pâtisserie PAUL
 COCODY;CABINET DENTAIRE BOISSY; 27 22 44 18 96; Cité Rouge - entre La Cie et la SGBCI - Cocody Danga
 COCODY;CABINET DENTAIRE DE LA CLINIQUE L'OASIS DES II PLATEAUX; 27 22 50 47 75 / 07 07 93 64 23; Au sein de la clinique l’oasis - au carrefour pharmacie les Arums
 COCODY;CABINET DENTAIRE DE LA CLINIQUE L'OASIS DES II PLATEAUX; 27 22 50 47 75 / 07 07 93 64 23; Au sein de la clinique l’oasis - au carrefour pharmacie les Arums
 COCODY;CABINET DENTAIRE DE LA CLINIQUE MEDICALE SAINTE HENRIETTE; 07 07 09 73 33; Au sein de la Clinique Médicale Sainte Henriette
 COCODY;CABINET DENTAIRE DE LA CORNICHE; 27 22 44 47 79; Rue corniche - en face de Nestlé
 COCODY;CABINET DENTAIRE DE LA POLYCLINIQUE II PLATEAUX; 27 22 41 44 99; Au sein de la Polyclinique des deux Plateaux
 COCODY;CABINET DENTAIRE DES DEUX PLATEAUX; 05 55 78 49 90; 2 Plateaux - en face du restaurent BMW - au sein du centre commercial Zeine
 COCODY;CABINET DENTAIRE DIAHA; 27 22 44 95 67 / 07 07 97 45 56; 7èmè tranche - Rue café de Versailles - au-dessus de la pharmacie 7 Lys
 COCODY;CABINET DENTAIRE DU DOKUI; 05 55 99 33 65 / 05 05 95 81 61; Plateau Dokui après pharmacie AZUR
 COCODY;CABINET DENTAIRE ELIANA; 07 08 72 07 09; Au sein du centre médical Eliana
 COCODY;CABINET DENTAIRE LATRILLE; 27 22 42 40 22; Carrefour Opéra - Immeuble Cerao II Plateaux Aghien
 COCODY;CABINET DENTAIRE LYCEE TECHNIQUE; 27 22 44 38 82; Au-dessus de la Pharmacie du Lycée Technique
 COCODY;CABINET DENTAIRE MARIE-VICTOIRE; 27 22 52 45 94; Près du 22ème Arrondissement Angré 7ème Tranche
 COCODY;CABINET DENTAIRE PHINA; 27 22 42 16 97; Juste derrière la Pharmacie Las Palmas bâtiment Sicogi (B H)
 COCODY;CABINET DENTAIRE POLYCLINIQUE HOTEL MEDICAL MUTUALISTE SAINT NICOLAS; 05 05 88 50 74; Au sein de la Polyclinique Hôtel Médical Mutualiste Saint Nicolas
 COCODY;CABINET DENTAIRE RIVIERA III; 27 22 47 93 88; Bd Arsène Assouan - près du Restaurant Jardin d'éden
 COCODY;CABINET DENTAIRE SAINT JEAN; 07 09 59 89 27; En face de la Banque Atlantique - Près de l’Eglise St Jean
 COCODY;CABINET DENTAIRE SAINTE FAMILLE; 27 22 47 34 63; En face de l’église Ste Famille
 COCODY;CABINET DENTAIRE SAINTE LUCIE; 27 22 49 02 67 / 27 20 22 24 17; Palmeraie Près de l'Institut Marie Rose Guiro - au sein de la cité SIPIM 2
 COCODY;CABINET DENTAIRE TOURE TURQUIN; 27 22 41 06 50; Rue des Jardins - Près de l'École Claire Fontaine - Immeuble Beda
 COCODY;CABINET LAMCA; 27 22 44 96 96 / 01 01 05 09 95; Cocody Centre - Près du médico-scolaire
 COCODY;CABINET SAINT MICHEL; 27 22 41 90 99;Près de la Grande Pharmacie des deux Plateaux
 COCODY;CCTOS; 07 07 92 99 59; En face de l'UFR Pharmacie de l'université de Cocody - au sein du bat ex INPHB
 COCODY;CENTRE CARDIO-RESPIRATOIRE LES JARDINS; 27 22 41 88 88; 2 Plateaux Vallon près de l’hôtel de jardin - route nuit du Saïgon
 COCODY;CENTRE D'IMAGERIE MEDICALE DE LA RIVIERA; 27 22 43 02 31; Riviera Bonoumin - en face du Collège André Malraux
 COCODY;CENTRE D'INVESTIGATIONS MEDICALES ET RADIOLOGIQUES CIRAD 07 08 36 24 24; 07 07 60 63 02 / 27 22 50 95 09 / 27 22 52 85 25; Cocody 7eme tranche Près du 30 -ème arrondissement
 COCODY;CENTRE D'OPHTALMOLOGIE DU BOULEVARD DES MARTYRS; 27 22 52 39 63 / 07 07 09 32 55;2 Plateaux Côté mosquée Aghien - bâtiment J - 1er étage
 COCODY;CENTRE D'OPHTALMOLOGIE SILOAM; 07 48 00 19 67 / 01 02 06 36 98; Cocody Mermoz Près de la maison de PDCI
 COCODY;CENTRE DE DIAGNOSTIC MEDICAL ET RADIOLOGIQUE DES II PLATEAUX; 27 22 41 68 98; Au sein de la polyclinique des 2 Plateaux
 COCODY;CENTRE DE THERMOTHERAPIE; 07 59 05 16 93 / 05 05 40 05 50; Riviera Bonoumin - Près de la Pharmacie Saint Côme et Damien - en face de la Clinique Bozouma
 COCODY;CENTRE MEDICAL MIKADE; 27 22 46 66 02; Carrefour Abatta - Centre Commercial KYF Galeria
 COCODY;CENTRE MEDICAL CURANTIS; 07 88 00 62 57 / 07 48 28 99 08; Carrefour Abatta nouveau goudron
 COCODY;CENTRE MEDICAL DES CITES; 27 22 52 24 59; Angré PetroIvoire - Cité Blanche - Route Pharmacie des Allées
 COCODY;CENTRE MEDICAL HOFFMAN; 05 74 86 82 56; Cité Angré les Oscars
 COCODY;CENTRE MEDICAL LA RETINE (OPHTALMOLOGIE); 27 22 46 83 65;A proximité d'Abidjan Mall - proche du Chawarma plus
 COCODY;CENTRE MEDICAL NIMATOULLAH; 07 07 33 76 29 / 27 22 42 71 82; Angré 22e arrondissement - route Dokoui
 COCODY;CENTRE MEDICAL PEDIATRIE SANS FRONTIERES; 27 22 44 01 32; En face de la PMI - derrière l'ancienne mairie - quartier Val doyen
 COCODY;CENTRE MEDICAL RIVIERA AMBASSADE; 27 22 43 54 54 / 07 58 82 81 82; Riviera Golf derrière la Mosquée
 COCODY;CENTRE MEDICAL SAINT JEAN DES VAISSEAUX ET DU COEUR; 01 43 07 92 22; Cocody centre Près de l'INSAAC
 COCODY;CENTRE MEDICAL TRIANGLE; 27 22 45 98 80 / 01 51 78 80 44; Riviera palmeraie - route de Bingerville Près de SOCOPRIX
 COCODY;CENTRE MEDICAL YELEND'OPTHALMOLOGIE; 27 22 50 70 29; Angré caféiers 4
 COCODY;CESAM LA DIAGNOSE; 27 22 41 43 13; 2 plateaux SOCOCE près dINTERBAT
 COCODY;CESAM SA; 27 22 41 11 40;2 plateaux derrière Planète BMW
 COCODY;CIMED PLUS; 07 58 32 00 17; 7e tranche près de la SODECI
 COCODY;CLAIRE VISION COCODY; 27 20 21 96 21 / 07 07 00 58 20;Présent à Abidjan (Cocody - Yopougon) Dabou - San Pedro - Abengourou - Bouaké - Aboisso
 COCODY;CLINIQUE AMERICAINE D’ABIDJAN; 27 22 45 87 69 / 07 07 50 07 40; Angré 9 tranche route CNPS - derrière l’immeuble CGK
 COCODY;CLINIQUE HOTEL DE LA SANTE HENRIETTE; 07 07 09 73 33 / 05 05 91 51 22; 8e Tranche - près de l’église Jean Paul II
 COCODY;CLINIQUE MEDICALE COEUR SACRE; 07 88 88 62 06 / 01 41 80 46 66; 7e Tranche - près du CIRAD
 COCODY;CLINIQUE MEDICALE DANAN; 07 07 93 72 81; Angré 22e arrondissement - route Dokoui
 COCODY;CLINIQUE MEDICALE ELIANA; 07 07 88 44 88; Riviera 2 cité universitaire
 COCODY;CLINIQUE MEDICALE KONOS; 27 22 41 79 58 / 01 40 37 80 42; Vallon - Avenue Boga Doudou en venant de l'ENA à droite
 COCODY;CLINIQUE MEDICALE L'ARCHE; 07 09 05 50 52 / 01 41 01 98 78; Route de Bingerville - derrière l'école jules vernes Cité laurier 15
 COCODY;CLINIQUE MEDICALE LATRILLE; 27 22 41 63 33 / 07 07 01 26 26;2 Plateaux Aghien - face à la mosquée
 COCODY;CLINIQUE MEDICALE LE ROCHER; 27 22 41 62 43 / 05 05 96 41 47;2 plateaux Sococé - Rue pavée près de la station Total
 COCODY;CLINIQUE MEDICALE LES BEATITUDES; 27 22 44 47 57 / 01 02 00 15 93; Quartier Dominicain Cocody cité des arts
 COCODY;CLINIQUE MEDICALE LES DRES; 01 02 32 93 29 / 07 08 32 93 29; Riviera Palmeraie - Rond point des rosiers - programme 4 - cité du port
 COCODY;CLINIQUE MEDICALE LES JASMINS; 27 22 44 12 71; Rue C50 par le jardin de l’université de Cocody
 COCODY;CLINIQUE MEDICALE MANZAN; 27 21 32 80 96; Route de Bingerville - derrière l'école jules vernes. Cité laurier 17
 COCODY;CLINIQUE MEDICALE SAINT MOISE; 27 22 42 85 85 / 07 77 31 16 31; Angré 7e tranche - près de Puissance 6
 COCODY;CLINIQUE MEDICALE SAINT VIATEUR; 27 22 47 26 47; Route Akouédo - Sideci - Riviera Palmeraie
 COCODY;CLINIQUE MEDICALE SAINTE DIANE; 07 57 14 04 80; Cité Sydess - Riviera 3
 COCODY;CLINIQUE MEDICALE SAINTE JUSTINE; 27 22 50 72 60 / 05 46 43 33 86; Angré programme 6 - carrefour à gauche avant le nouveau pont
 COCODY;CLINIQUE MEDICALE SPECIALISEE; 27 22 41 72 96 / 27 22 41 75 09; 2 Plateaux - prolongement de la Polyclinique des II Plateaux
 COCODY;CLINIQUE NOTRE DAME DE L'INCARNATION; 27 22 49 15 05 / 01 03 97 92 93; Rond-point de la Riviera palmeraie
 COCODY;CLINIQUE NOTRE DAME DES VICTOIRES; 27 21 78 88 18 / 07 57 69 91 58; Abata - entre-le Lycée Jules Vernes et la Cité MUGEF-CI
 COCODY;CLINIQUE NOUVELLE ESPERANCE; 01 01 51 44 44; Riviera 3 près du lycée français l'ARDOISE
 COCODY;CLINIQUE PROCREA; 27 22 49 01 09 / 05 45 55 11 35; Au niveau du Rondpoint - près de la SGBCI - Riviera Palmeraie
 COCODY;CLINIQUE SAINT JOSEPH; 27 21 74 44 12 / 07 08 87 08 82; Faya - cité ATCI villa 31
 COCODY;CLINIQUE SAINT PIERRE LE GRAND; 07 47 56 92 95 / 07 47 29 19 84; M'pouto - en face de Sol béni
 COCODY;COCODY OPTIQUE; 27 22 44 14 26; Abidjan Cocody Centre
 COCODY;CRISTAL OPTIC CENTER; 27 22 43 94 11; Abidjan (Riviera 2)
 COCODY;EQUILIBRE SANTE; 27 22 44 25 49 / 07 07 57 07 03; Cocody Angré - Rue des jasmins
 COCODY;ESPACE MEDICAL ATTOBAN; 27 22 43 20 21 / 07 59 58 72 12; Riviera Attoban - derrière la pharmacie Saint Bernard -
 COCODY;ESPACE MEDICAL JADE; 27 22 44 47 90 / 07 07 80 89 18; Carrefour la vie - en face de la gendarmerie
 COCODY;ESPACE MEDICAL SAINTE FAMILLE; 01 40 82 31 50 / 01 42 51 65 44; Angré château à côté de la pharmacie château d'eau
 COCODY;ESPACE SANTE PLUS; 07 48 10 01 06; Cocody Angre 7e tranche près du café de Versailles
 COCODY;ESPACE VISION; 27 22 41 03 83; Abidjan - Cocody 2 Plateaux Rue des Jardins
 COCODY;GROUPE MEDICAL BOZOUMA; 07 79 86 97 71; Riviera Bonoumin - près de la Pharmacie Saint Côme et Damien
 COCODY;GROUPE MEDICAL DE L'AMITIE; 07 07 07 45 73; Près de la Mosquée - Riviera 3
 COCODY;GROUPE MEDICAL REMAAS; 07 47 19 14 96 / 05 05 95 57 85; Faya - quartier en face de la cité ARTCI
 COCODY;GROUPE MEDICAL ZOE; 27 21 43 28 24 / 07 59 50 05 81; Riviera CIAD PRIMO près de la pharmacie Mpouto
 COCODY;HEMODIALYSE DEUX PLATEAUX; 27 22 44 89 90;2 Plateaux Farandole - au sein de la Polyclinique des 2 Plateaux
 COCODY;HOLLYWOOD OPTICAL II PLATEAUX; 07 07 31 31 01 / 07 08 48 48 48; Abidjan (Deux Plateaux - Marcory - Port Bouët - Yopougon)
 COCODY;HOME MEDICAL SERVICE; 27 22 59 61 50 / 05 05 26 26 45;2 Plateaux Vallon - près de Cash Center
 COCODY;IMMACULEE OPTIQUE; 07 08 84 52 55; Cocody - Angré 22e Arrondissement - route de Petro Ivoire
 COCODY;IMMACULEE OPTIQUE; 07 08 84 52 55; Cocody - Angré 22e Arrondissement - route de Petro Ivoire
 COCODY;INSTITUT PASTEUR; 07 88 18 38 48;Dans l’enceinte du CHU de COCODY
 COCODY;KINE MEDICAL; 25 22 01 45 57; La Clinique Bozouma
 COCODY;KINE PLURIEL; 07 47 72 92 88 / 05 05 63 68 68; Angré Star 9B - derrière la Pharmacie des Allées
 COCODY;KYRIEL OPTIC II PLATEAUX; 07 08 69 43 44 / 01 02 55 30 44; Abidjan (II Plateaux - Yopougon) - Gagnoa
 COCODY;LA NOUVELLE CLINIQUE MEDICO-CHIRURGICALE LA ROSE DES SAVANES; 07 07 08 09 70; Plateaux Dokoui près du marché
 COCODY;LABEL VUE OPTIC; 27 22 50 16 74 / 07 78 13 59 89; Abidjan - Angré 9e tranche
 COCODY;LABORATOIRE BIODIAGNOSTIC; 07 58 82 70 67 / 01 03 33 55 03; Cocody vallon - carrefour nuit de saïgon près de OIM CANADA
 COCODY;LABORATOIRE DU CDR DES DEUX PLATEAUX; 27 22 41 44 99 / 27 22 41 68 98; Au sein de la polyclinique des II plateaux
 COCODY;LUX VISION; 07 07 92 12 69; Abidjan Cocody 7e Tranche
 COCODY;MAHE THERAPIE CENTER; 27 22 43 53 84 / 07 78 59 51 84; Cocody - Riviera Golf Ilot A2 Villa 66
 COCODY;MODERN'OPTIQUE ANGRE; 27 20 22 75 74 / 27 20 33 55 15; Abidjan (Plateau - Yopougon - II plateaux - Cocody Angré) - San Pedro
 COCODY;MODERN'OPTIQUE II PLATEAUX; 27 20 22 75 74 / 27 20 33 55 15; Abidjan (Plateau - Yopougon - II plateaux - Cocody Angré) - San Pedro
 COCODY;NOUVELLE CLINIQUE RHEMA; 27 22 41 16 35;2 plateaux près de la farandole
 COCODY;OCEAN VISION COCODY ANGRE; 27 23 51 20 45; Abidjan (Cocody Angré - Marcory - Port Bouët - Yopougon)
 COCODY;OPTIQUE CONFORT; 27 22 50 57 66 / 07 77 01 02 14; Abidjan (Cocody Angré)
 COCODY;OPTIQUE SERVICES; 25 24 01 18 21; Abidjan (Plateau Dokui)
 COCODY;OPTIQUE VISION 2000; 07 57 21 13 45; Cocody - Carrefour FAYA
 COCODY;POINT DE VUE OPTICIEN; 07 07 65 92 36 / 07 77 80 57 88; Cocody - Quartier Abatta au feu
 COCODY;POLYCLINIQUE DES II PLATEAUX; 27 22 41 46 21; Cocody - II Plateaux - derrière l’école La Farandole
 COCODY;POLYCLINIQUE HOTEL MEDICAL MUTUALISTE SAINT NICOLAS; 05 05 88 50 74; Riviera Bonoumin - près d’Abidjan Mall
 COCODY;POLYCLINIQUE INTERNATIONALE SAINTE ANNE MARIE (PISAM); 27 22 48 31 31; Avenue Joseph Blohorne
 COCODY;POLYCLINIQUE LE PANTHEON MEDICAL; 27 22 47 11 32; Route du Lycée Français - face Pharmacie St Pierre des Rosées
 COCODY;POLYCLINIQUE SACRE-COEUR DABIDJAN; 25 22 00 88 88 / 07 47 46 00 00; Riviera Attoban Cocody près de l’école Jules ferry
 COCODY;PRECIS OPTIQUE; 07 58 15 08 65 / 07 08 58 65 48; Abidjan (Cocody Angré 7e tranche)
 COCODY;RETINE OPTICIEN; 07 09 99 05 93; Cocody - Riviera Palmeraie près du rond-point
 COCODY;SAINT CHRIST OPTIQUE; 27 22 49 54 74; Cocody - Rond-Point Riviera Palmeraie - près de la SIB
 COCODY;SOCIAL VISION COCODY; 27 22 44 02 10 / 07 59 37 85 14; Abidjan (Cocody - Yopougon)
 COCODY;TENDANCE OPTIQUE; 07 89 92 79 55; Cocody Deux plateaux farandole
 COCODY;TOP OPTIQUE; 07 77 12 13 13 / 07 68 22 49 61; Abidjan (Cocody Angré)
 COCODY;Z'OPTIC; 07 47 77 28 77; Cocody Riviera Palmeraie
 KOUMASSI;CENTRAL OPTIQUE PRESTIGE; 07 87 22 49 82; Koumassi Sicogi près de la pharmacie bethanie - vers la station vinko
 KOUMASSI;CENTRE MEDICAL LA MISERICORDE; 27 21 36 19 26 / 07 67 64 65 40; Grand Carrefour - En Face du Marché dje Konan - Remblais
 KOUMASSI;CLINIQUE IRYS; 27 21 36 36 21 / 01 01 15 53 09; Terminus du bus 11 - au-dessus de la pharmacie Mesano
 KOUMASSI;CLINIQUE MEDICALE LYRING; 27 21 28 84 02; Au-dessus du restaurant le gourmand sur la ligne du bus 11 après l’église Sainte Bernadette
 KOUMASSI;CLINIQUE MEDICALE DE KOUMASSI; 07 09 57 37 79; Au grand carrefour de Koumassi - au-dessus de la pharmacie de Koumassi
 KOUMASSI;OPTICOOL KOUMASSI; 27 21 36 36 24 / 01 01 84 31 54; Abidjan (Koumassi - Yopougon Maroc) Bouaflé - Bouaké
 KOUMASSI;RADIOLOGIE IMAGERIE MEDICALE CANAAN; 07 77 25 68 70; Au-dessus de la Pharmacie Soleil
 KOUMASSI;REVOLUTION OPTIQUE; 07 08 52 94 57; Koumassi kahira en face de SGBCI
 KOUMASSI;VOIR + OPTIC; 27 21 56 15 38; Abidjan (Koumassi Remblais)
 MARCORY;ALAIN AFFLELOU MARCORY; 27 22 41 62 52; Abidjan (Cocody - Marcory)
 MARCORY;CABINET DENTAIRE DE LA ZONE 4; 27 21 24 42 42; Bdv de Marseille - entre le restaurant PAUL et Cash Center
 MARCORY;CABINET DENTAIRE DES LAGUNES; 27 21 28 54 16; Marcory Résidentiel
 MARCORY;CABINET DENTAIRE DU BOULEVARD DU GABON; 01 01 30 55 10; Près de l’échangeur de Marcory - en face de la pharmacie Tiacoh
 MARCORY;CABINET DENTAIRE FRANCE IVOIRE; 27 21 25 25 60; Bvd de Marseille - au sein de la clinique médico chirurgicale France Ivoire
 MARCORY;CABINET DENTAIRE RUE LUMIERE; 07 09 75 77 90; Bâtiment les Lauriers - sur le Bvd V G E
 MARCORY;CABINET DENTAIRE SAINTE MARIE; 27 21 24 46 23; En face de Solibra - Près de CIMA
 MARCORY;CABINET DENTAIRE SAINTE THERESE; 27 21 26 97 68; En face de l' église Ste Thérèse - au-dessus de la Pharmacie Ste Thérèse
 MARCORY;CLINIQUE MEDICALE CARLY; 27 21 24 60 05; Biétry - Résidence Blue Cube - Boulevard de Marseille
 MARCORY;CLINIQUE MEDICALE LA VIERGE DES NOCES; 27 21 26 05 77 / 01 51 04 04 83; Boulevard Lorraine vers l’église Sainte Thérèse
 MARCORY;CLINIQUE MEDICALE POLYMED; 27 21 26 89 22 / 07 07 07 53 63; Marcory résidentiel près de pharmacie des Lagunes
 MARCORY;CLINIQUE MEDICALE SAINTE MYRIADES; 27 21 26 53 23; Marcory Résidentiel - Pharmacie de la Paix - près de Clinique Avicennes
 MARCORY;CLINIQUE MEDICO-CHIRURGICALE FRANCE IVOIRE; 27 21 25 25 60; Biétry - en face de l’hôtel le Wafou
 MARCORY;CMIDA; 27 21 25 44 43; Près de DHL sur le VGE
 MARCORY;GENERAL OPTIC; 27 21 26 99 89 / 07 09 79 17 79; Marcory - Derrière ORCA DECO - en face de la Pharmacie Massarana
 MARCORY;GROUPE CANA OPTIC; 07 07 06 17 39; Rue Lorraine - en face à l'hôtel Hamanieh - Marcory Résidentiel
 MARCORY;HOLLYWOOD OPTICAL MARCORY; 07 07 31 31 01 / 07 08 48 48 48; Abidjan (Deux Plateaux - Marcory - Port Bouët - Yopougon)
 MARCORY;LABORATOIRE INTERNATIONAL D’ABIDJAN; 27 21 22 27 30; Marcory zone 4 en face du glacier AMORE
 MARCORY;MODE ET VISION PLUS; 27 21 26 80 04; Abidjan - Marcory
 MARCORY;OCEAN VISION MARCORY; 27 23 51 20 45; Abidjan (Cocody Angré - Marcory - Port Bouët - Yopougon)
 MARCORY;POLYCLINIQUE FARAH; 27 21 26 00 93; Marcory INJS - face à la Résidence Donwaï
 PLATEAU;AMITIE OPTIQUE PLATEAU; 27 20 21 40 99 / 07 07 56 38 52; Abidjan (Plateau - Cocody)
 PLATEAU;CABINET DE CARDIOLOGIE EDLONA; 27 20 21 91 30 / 07 08 81 50 10; Rue Paris Village - Immeuble Tchegbao - 1er étage porte 13
 PLATEAU;CABINET DE RHUMATOLOGIE D'ABIDJAN; 27 20 33 88 80; Rue du commerce - Immeuble Amiral - 3e étage
 PLATEAU;CABINET DENTAIRE SAINT PAUL; 27 20 22 38 44; Entre l'Imprimerie Nationale et les Finances - au Sein de l'espace Médical St Paul
 PLATEAU;CABINET DENTAIRE A. KOFFI; 27 20 21 28 34; Près de la Bijouterie A Constant
 PLATEAU;CABINET DENTAIRE DE LA POLYCLINIQUE DE L'INDENIE; 27 20 30 91 00; Au sein de la Polyclinique de l'Indénié
 PLATEAU;CABINET DENTAIRE DR WOGNIN; 27 20 33 42 47; Juste derrière la mosquée du Plateau - Immeuble Trade Center - 1er étage
 PLATEAU;CABINET DENTAIRE DU PLATEAU; 27 20 33 11 90; Ave Lamblin - Rue des Tessieres - au sein de la Jeune Chambre
 PLATEAU;CABINET DENTAIRE DU SMF; 27 20 30 61 20; Au sein du Service Médical des Fonctionnaires - Près de l'externat St Paul
 PLATEAU;CABINET DENTAIRE DU VERDIER; 27 20 32 99 59; Av Houdaille - en face du Conseil de l'Entente - Immeuble le Verdier
 PLATEAU;CABINET DENTAIRE EKONDE; 27 20 32 37 16; Rue du Commerce - Immeuble Nassar et Gaddar - escalier B 1er Étage Porte B 11/ B 13
 PLATEAU;CABINET DENTAIRE EKRA; 27 20 22 26 53 / 07 07 09 81 42; Immeuble Les Ambassades  -1er Étage
 PLATEAU;CABINET DENTAIRE HORIZON; 27 20 21 31 39; Immeuble Résidence Horizon  -6ème étage - juste après l'immeuble AXA Assurance
 PLATEAU;CABINET DENTAIRE LE MANGUIER; 27 20 21 86 95; Bd Angoulvant - Immeuble le Manguier
 PLATEAU;CABINET DENTAIRE NABIL; 27 20 32 81 81; Av Houdaille Immeuble Soukail 1er Étage
 PLATEAU;CABINET DENTAIRE PENIEL; 27 20 21 63 21; Immeuble Borg - 1er étage
 PLATEAU;CABINET DENTAIRE SANGARET; 27 20 24 22 74 / 05 05 96 35 04; Avenue Chardy - en face de la pharmacie Avenue Chardy - au rez de chaussée
 PLATEAU;CABINET DENTAIRE TRAORE; 27 20 32 33 31; Rue du Commerce Immeuble Borija 1er Étage
 PLATEAU;CENTRAL OPTIQUE PHOTO; 27 20 22 24 17 / 27 20 22 11 32; Abidjan (Plateau)
 PLATEAU;CENTRE MEDICAL POSTEL 2001; 07 09 38 23 19; Sous-sol de l’immeuble POSTEL 2001
 PLATEAU;CENTRE MEDICAL SAINT JOSEPH; 27 20 32 02 40; Rue du commerce - juste derrière Virus
 PLATEAU;CENTRE MEDICAL SAINTE LOUISE; 27 20 21 20 50 / 07 47 68 65 20; Rue du commerce au-dessus de la pharmacie Mazuet
 PLATEAU;CENTRE MEDICO-CHIRURGICAL D’OPHTALMOLOGIE; 27 20 22 22 58 / 27 20 21 13 53; Avenue Delafosse - près de Burger King
 PLATEAU;CLIN D'IL OPTIQUE; 07 57 32 78 79; Plateau - Immeuble trade center - Avenue Noguès
 PLATEAU;CLINIQUE MEDICALE FRANCHET DESPEREY; 27 20 21 84 11; Plateau - Avenue Franchet dEsperey - Immeuble Ollo
 PLATEAU;CLINIQUE MEDICALE TRADE CENTER; 27 20 21 20 98; Avenue Houdaille - Immeuble Trade Center
 PLATEAU;COMCI; 01 88 78 00 00; Abidjan - Plateau - siège MUGEF-CI
 PLATEAU;ESPACE MEDICAL SAINT PAUL; 27 20 21 16 52; Proche de l'imprimerie nationale
 PLATEAU;FRANCE OPTIQUE; 27 20 21 22 10 / 27 20 21 11 69; Abidjan (Plateau)
 PLATEAU;HYGIE VITA; 27 20 21 19 64 / 07 57 98 44 10; Plateau Immeuble Nour AL AYAT 3e étage près de l’ambassade d'Israël
 PLATEAU;LABORATOIRE CENTRAL; 27 20 21 79 64; Avenue Franchet d'Esperey - Immeuble OLLO
 PLATEAU;LABORATOIRE LONGCHAMP; 27 20 22 75 98; Avenue marchand entre externat Saint Paul et hôtel IBIS
 PLATEAU;LABORATOIRE PLACE DE LA REPUBLIQUE; 27 20 21 34 91; Avenue Houdaille près de l’ancienne tour EECI
 PLATEAU;MODERN'OPTIQUE PLATEAU; 27 20 22 75 74 / 27 20 33 55 15; Abidjan (Plateau - Yopougon - II plateaux - Cocody Angré) - San Pedro
 PLATEAU;NET OPTIQUE; 27 20 21 17 68 / 07 07 14 34 51; Plateau - Avenue Franchet D'Espérey
 PLATEAU;NOVACARDIO; 27 20 30 91 00; Au sein de la Polyclinique de l'Indenié
 PLATEAU;NOVACARE; 07 07 07 89 98; Rue du commerce - derrière le siège dEcobank
 PLATEAU;ONYX OPTIQUE; 27 20 33 55 63 / 07 07 01 49 22; Abidjan (Plateau)
 PLATEAU;OPTICA; 07 58 70 70 31; Immeuble la prévoyance CNPS - Rue du Commerce
 PLATEAU;OPTICAL STORE; 25 20 00 79 40 / 07 78 17 25 55; Plateau - Rue du Commerce en face de la CNPS
 PLATEAU;POLYCLINIQUE INTERNATIONALE DE L'INDENIE; 27 20 30 91 00; Boulevard de l'Indénié - près de l'EPP Joseph Anoma
 PLATEAU;SAKHO OPTIQUE; 27 20 22 88 68; Abidjan (Plateau)
 PLATEAU;SERVICE MEDICAL DES FONCTIONNAIRES; 27 20 30 61 20; Près de l’externat Saint Paul
 PORT-BOUET-VRIDI;CABINET DENTAIRE DJIGUI; 27 21 27 64 31; Au-dessus de la Pharmacie Djigui
 PORT-BOUET-VRIDI;CENTRE MEDICAL MALON; 27 21 27 80 44; Près du centre pilote et de la mosquée
 PORT-BOUET-VRIDI;CLINIQUE MEDICALE EMERAUDE; 07 49 69 79 22;Près de la pharmacie Océan route 43 -ème BIMA
 PORT-BOUET-VRIDI;CENTRE MEDICO-SOCIAL CARITAS; 27 20 36 17 18; Derrière le marché de nuit
 PORT-BOUET-VRIDI;GROUPE MEDICAL COTE D'IVOIRE TECHNO; 27 21 27 43 49; Vridi en face de CFAO
 PORT-BOUET-VRIDI;HOLLYWOOD OPTICAL PORT BOUET; 07 07 31 31 01 / 07 08 48 48 48; Abidjan (Deux Plateaux - Marcory - Port Bouët - Yopougon)
 PORT-BOUET-VRIDI;OCEAN VISION PORT BOUET; 27 23 51 20 45; Abidjan (Cocody Angré - Marcory - Port Bouët - Yopougon)
 TREICHVILLE;CABINET DE RHUMATOLOGIE DE LA CLINIQUE DU PONT DE GAULLES; 07 07 08 20 42;A proximité des tours CIE-SODECI
 TREICHVILLE;CABINET DENTAIRE AVENUE 21; 27 21 24 30 20; Avenue 21 - Rue 17 - au croisement de l'Avenue 21 et du Boulevard
 TREICHVILLE;CABINET DENTAIRE AZIE; 27 21 24 41 62; Bvd Vge - face à Kalabal Zone 1 - à côté du Palais des Sports
 TREICHVILLE;CABINET DENTAIRE DE LA CLINIQUE AIBEF; 27 21 25 36 01; Au sein de la clinique AIBEF - Près dIVOSEP
 TREICHVILLE;CABINET DENTAIRE DU ROND-POINT; 27 21 25 72 81; Immeuble Roche - en Face de Kobeissi - Gare de Bassam
 TREICHVILLE;CABINET DENTAIRE GARE DE BASSAM; 05 55 05 27 27; Grand-Bassam Quartier imperial Extension Escalier A - 1er Etage - porte 4
 TREICHVILLE;CABINET DENTAIRE NANAN YAMOUSSO; 01 40 23 18 67; Immeuble Nanan Yamousso
 TREICHVILLE;CABINET DENTAIRE NOUVELLE PERGOLA; 27 21 24 30 40; Bvd de Marseille - face à la Nouvelle Pharmacie du Palais des Sports
 TREICHVILLE;CABINET DENTAIRE SAINT JEAN BOSCO; 27 21 24 73 39; Av 16 Rue 38 - au feu du collège Jean Bosco
 TREICHVILLE;CENTRE INTEGRE DE RECHERCHE BIOCLINIQUE D'ABIDJAN (CIRBA); 27 21 24 09 24 / 27 21 25 92 74; Boulevard de Marseille à côte du CNTS Treichville
 TREICHVILLE;CENTRE MEDICAL GLOBAL DIAGNOSTIC; 07 07 03 41 68 / 07 57 83 02 08; Avenue 16 - Rue 38 Immeuble Kebe (Coris bank)
 TREICHVILLE;CENTRE MEDICAL PROXIMO; 27 21 35 41 36 / 07 09 84 60 66; Centre Commercial Kobeissi - bloc D - Gare de Bassam
 TREICHVILLE;CENTRE MEDICAL SMGL; 27 21 24 74 68 / 07 09 18 70 39; Zone 3 - face à Solibra - Immeuble les Dunes
 TREICHVILLE;CENTRE MEDICAL SMGL; 27 21 24 74 68 / 07 09 18 70 39; Zone 3 - face à Solibra - Immeuble les Dunes
 TREICHVILLE;CENTRE MEDICAL SMGL; 27 21 24 74 68 / 07 09 18 39 70; Face à SOLIBRA - Immeuble les dunes
 TREICHVILLE;CENTRE MEDICO-CHIRURGICAL DE TREICHVILLE; 27 21 24 51 29; Avenue 3 - rue 5
 TREICHVILLE;CIMA; 27 21 24 54 09; Zone 3 - face à Solibra
 TREICHVILLE;CLINIQUE MEDICALE PONT DE GAULLES; 07 07 08 20 42; Près des tours CIE-Sodeci
 TREICHVILLE;CLINIQUE MEDICALE SAINT SAUVEUR; 27 21 24 40 75 / 01 03 03 29 29; Treichville avenue 21
 TREICHVILLE;DIZ'OPTIQUE; 27 21 27 35 54 / 05 05 21 63 93; Abidjan - Treichville
 TREICHVILLE;LA ROSETTE; 25 22 00 67 47 / 07 79 46 86 37; Quartier Arras - près de la gare de Bassam
 TREICHVILLE;POLYCLINIQUE INTERNATIONAL HOTEL DIEU; 27 21 25 79 20 / 27 21 25 79 19; Bd. De Marseille - en face de la pharmacie Palais des sports - Zone 2
 TREICHVILLE;VISION ECLAT; 27 21 25 19 33 / 05 05 02 77 63; Treichville - Boulevard de Marseille - près de Sococé Prix - face BICICI
 TREICHVILLE;VOOM OPTIQUE; 27 21 24 43 90 / 01 01 33 55 99; Abidjan - Treichville
 YOPOUGON;A VISION; 25 20 01 01 76 / 01 01 08 48 47; Abidjan-Yopougon
 YOPOUGON;ALLIANCOPTIQUE OUME; 25 20 01 23 43 / 07 08 49 93 72; Abidjan - Yopougon Maroc | Oumé
 YOPOUGON;ANOPTIC YOPOUGON; 27 21 26 20 93 / 07 58 55 55 19; Abidjan (Riviera - Yopougon) Daloa
 YOPOUGON;CABINET DENTAIRE BEL-AIR; 07 07 99 75 03; Boulevard Institut des aveugles
 YOPOUGON;CABINET DENTAIRE CISSE ALPHA; 01 40 98 46 46; Yopougon - Niangon Caféier
 YOPOUGON;CABINET DENTAIRE DE LA CLINIQUE LES OLIVIERS; 01 40 22 56 10; Au sein de la Clinique - Près du collège les Phalènes
 YOPOUGON;CABINET DENTAIRE DE LA CLINIQUE MEDICALE VIE; 27 23 46 29 43 / 07 09 71 38 73; Au sein de la Clinique Médicale Vie - Carrefour Niangon - Près de la mosquée Koudouss
 YOPOUGON;CABINET DENTAIRE DE LA CMC IROKO; 05 05 64 07 49; Quartier Toits Rouges - au sein de la Clinique - Près de la caserne des sapeurs-pompiers
 YOPOUGON;CABINET DENTAIRE DE LA POLYCLINIQUE DE YOPOUGON; 07 07 93 20 59 / 01 42 05 69 29; Yopougon - quartier Koweitt
 YOPOUGON;CABINET DENTAIRE DU GROUPE MEDICAL PROMETHEE; 27 23 45 30 77 / 07 49 40 17 70; Ananeraie - entre le carrefour oasis et le carrefour Sorbonne
 YOPOUGON;CABINET DENTAIRE HOTEL MEDICAL MARIA; 27 23 52 32 05; Yopougon toit rouge entre la gendarmerie et le commissariat du 19e arr. en face de la mairie annexe.
 YOPOUGON;CABINET DENTAIRE LA GRACE; 05 46 42 73 94; A Côté de la Pharmacie Divine Grâce
 YOPOUGON;CABINET DENTAIRE LE GRAND CENTRE; 27 23 46 92 22; Au sein de la clinique le Grand Centre - Près du carrefour Amondji
 YOPOUGON;CABINET DENTAIRE LE MESSIE; 01 02 03 15 16 / 07 07 14 18 56; Boulevard Principal - en face de la Pharmacie KENEYA
 YOPOUGON;CABINET DENTAIRE LES ORCHIDEES; 07 07 62 73 95; Au sein de la clinique médicale les orchidées - près du terminus 47
 YOPOUGON;CABINET DENTAIRE LHIDY MARIE JOSEPHE; 07 08 34 93 86;A côté de la mairie de Yopougon
 YOPOUGON;CABINET DENTAIRE OASIS; 01 01 35 56 50; Au-dessus de la pharmacie KENEYA - en face de la CIE
 YOPOUGON;CABINET DENTAIRE SAINTE RITA; 01 40 20 38 50; Près de la Cité Cie - en face de la Clinique Ste Rita - Cité NOVALIM
 YOPOUGON;CABINET DENTAIRE YOPOUGON SABLE; 07 07 97 74 42; Yopougon Sable 1er pont - en face de la Pharmacie Ste Rita
 YOPOUGON;CAT VISION; 07 48 03 77 30 / 05 46 48 83 46; Abidjan (Yopougon CHU)
 YOPOUGON;CENTRE MEDICAL ANDRE DUPUY; 27 23 50 50 50; Près du cinéma Saguidiba
 YOPOUGON;CENTRE MEDICAL COSMOS; 27 22 40 27 91; A l'intérieur de Centre Commercial COSMOS
 YOPOUGON;CENTRE MEDICAL ELITE D'AZITHO; 07 07 03 66 03; Azitho - Carrefour Assemblée de Dieu
 YOPOUGON;CENTRE MEDICAL L'ETOILE BRILLANTE; 01 01 18 02 25; Yopougon Niangon-nord - près de la Pharmacie Jericho
 YOPOUGON;CENTRE MEDICAL LES ARCHANGES; 05 05 03 98 86; Yopougon Maroc - route de Dabou
 YOPOUGON;CENTRE MEDICAL SAINT SAUVEUR MISERICORDIEUX; 07 07 09 12 31; Millionnaire - Ancien Bel Air
 YOPOUGON;CHARM OPTIC DIVO; 27 23 45 39 49 / 07 07 45 27 37; Abidjan - Yopougon Maroc 
 YOPOUGON;CIMED; 05 54 06 31 33 / 05 06 64 98 85; Quartier SICOGI - en face de la PMI
 YOPOUGON;CLAIRE VISION YOPOUGON; 27 20 21 96 21 / 07 07 00 58 20; Présent à Abidjan (Cocody - Yopougon) Dabou - San Pedro - Abengourou - Bouaké - Aboisso
 YOPOUGON;CLINIQUE DE L'AMITIE ABIDJAN MERE THERESA; 25 22 00 92 09 / 01 02 63 94 39; Niangon Nord - 500 m de l’Académie des mers - Cité Marine
 YOPOUGON;CLINIQUE LA GUARDIA; 27 23 40 80 15 / 07 07 19 01 90; Yopougon Carrefour CHU
 YOPOUGON;CLINIQUE MEDICALE ANDRE DUPUY; 01 03 74 43 34 / 07 09 17 39 10; SIDECI ancien cinéma Saguidiba
 YOPOUGON;CLINIQUE MEDICALE LES ORCHIDEES; 07 79 65 55 12; Soghefia terminus 47
 YOPOUGON;CLINIQUE MEDICALE LE GRAND CENTRE; 27 23 46 72 67 / 27 23 51 03 19 / 07 09 46 04 15; Niangon nord carrefour AMONDJI
 YOPOUGON;CLINIQUE MEDICALE LES OLIVIERS; 27 23 51 84 44; Nouveau bureau de SODECI
 YOPOUGON;CLINIQUE MEDICALE MAMIE ADJOUA; 27 23 46 80 24 / 07 49 85 58 43; Quartier Mamie Adjoua - près de la Cité Mamie Adjoua
 YOPOUGON;CLINIQUE MEDICALE MONT CARMEL; 27 23 46 06 01 / 01 42 43 43 99; Ananeraie - Carrefour Oasis
 YOPOUGON;CLINIQUE MEDICALE OASIS SANTE; 27 23 53 18 35; A 50 m de la Pharmacie Keneya
 YOPOUGON;CLINIQUE MEDICALE SAINT MATHIEU; 27 23 52 82 60; Cité verte - lot 29
 YOPOUGON;CLINIQUE MEDICALE SAINTE BETHINA; 07 07 68 48 20; Niangon nord à droite - cité caféier
 YOPOUGON;CLINIQUE MEDICALE SAINTE MARIE; 27 23 46 13 96; Immeuble les 18 pavillons - Académie de la mer
 YOPOUGON;CLINIQUE MEDICALE VIE; 27 23 46 29 43; Face à la pharmacie Port Bouet II
 YOPOUGON;CLINIQUE MEDICO-CHIRURGICALE SAINT RAPHAEL; 27 23 46 15 69; Maroc - près du carrefour canaris
 YOPOUGON;CLINIQUE NOTRE DAME DES LOURDES; 07 79 76 76 17; Yopougon Niangon nord
 YOPOUGON;CLINIQUE SAINTE JANE LEORA; 27 23 50 72 05 / 07 07 69 69 09; Ananeraie près du collège Guichanrolain
 YOPOUGON;CLINIQUE SAINTE RITA DE CASCIA; 27 23 45 55 99; Carrefour Amondji - près de la pharmacie Cité CIE
 YOPOUGON;EDEN OPTIC; 07 59 19 74 78; Yopougon - quartier Ananeraie - carrefour Guichanrolain
 YOPOUGON;EPHPHATA OPTIC; 07 08 33 46 46 / 05 05 72 47 96; Abidjan (Yopougon Niangon)
 YOPOUGON;ESPACE MEDICAL LE PHENIX; 07 07 61 57 26; Banco 2 - pharmacie Phénix
 YOPOUGON;ESPACE MEDICAL SAINT SAUVEUR; 25 23 00 52 86; Niangon Nord Quartier Maroc à 100M du Carrefour Antenne
 YOPOUGON;ESPACE OPTIQUE SAINTE RITA; 07 07 53 14 29; Yopogon nouveau quartier près du complexe
 YOPOUGON;GROUPE MEDICAL PROMETHEE; 25 23 00 19 61 / 07 49 40 17 70; Ananeraie Niangon Nord Quartier
 YOPOUGON;HOLLYWOOD OPTICAL YOPOUGON; 07 07 31 31 01 / 07 08 48 48 48; Abidjan (Deux Plateaux - Marcory - Port Bouët - Yopougon)
 YOPOUGON;HOTEL MEDICAL MARIA; 05 05 99 80 96; Près annexe mairie - toits rouges
 YOPOUGON;KYRIEL OPTIC YOPOUGON; 07 08 69 43 44 / 01 02 55 30 44; Abidjan (II Plateaux - Yopougon) - Gagnoa
 YOPOUGON;LABORATOIRE BIOMEDICAL; 27 23 50 09 07 / 01 40 01 18 39; Route de GESCO près de la pharmacie Mamie Adjoua
 YOPOUGON;LABORATOIRE MAISON BLANCHE; 27 23 48 60 60; Banco 2 juste en dessus de la pharmacie la Maison Blanche
 YOPOUGON;LABORATOIRE NOUVEAU QUARTIER; 27 23 45 03 85 / 01 03 20 12 66; Nouveau quartier - axe complexe sportif - caserne des sapeurs-pompiers
 YOPOUGON;MAITRE OPTIC; 27 23 45 06 98; Yopougon - Maroc - carrefour Amondji
 YOPOUGON;MODERN'OPTIQUE YOPOUGON; 27 20 22 75 74 / 27 20 33 55 15; Abidjan (Plateau - Yopougon - II plateaux - Cocody Angré) - San Pedro
 YOPOUGON;NOUVELLE CLINIQUE IROKO; 27 23 45 94 85 / 07 07 44 60 84; Derrière les sapeurs-pompiers - Yopougon Toits rouges
 YOPOUGON;OCEAN VISION YOPOUGON; 27 23 51 20 45; Abidjan (Cocody Angré - Marcory - Port Bouët - Yopougon)
 YOPOUGON;OPTIC CENTER; 07 57 19 92 33 / 01 43 89 10 83; Abidjan (Yopougon)
 YOPOUGON;OPTICOOL YOPOUGON; 27 21 36 36 24 / 01 01 84 31 54; Abidjan (Koumassi - Yopougon Maroc) Bouaflé - Bouaké
 YOPOUGON;POLYCLINIQUE DE YOPOUGON; 01 03 45 08 86 / 07 49 13 13 12; Koweït - En face de la Pharmacie Koweït
 YOPOUGON;PROVIDENCE OPTIQUE; 07 07 31 67 65 / 27 23 45 47 79; Abidjan (Yopougon Camp militaire)
 YOPOUGON;REEL OPTICAL; 27 23 46 58 97 / 05 04 71 16 16; Abidjan (Yopougon Ananeraie)
 YOPOUGON;SOCIAL VISION YOPOUGON; 27 22 44 02 10 / 07 59 37 85 14; Abidjan (Cocody - Yopougon)
;;;
;;;
;;;
;;;
;;;
;;;
;;;
;;;
;;;
;;;
;;;
;;;
;;;
;;;
;;;
;;;
;;;
;;;
;;;
;;;
;;;
;;;
;;;
;;;
;;;
;;;
;;;
;;;
;;;
;;;
;;;
;;;
;;;
;;;
;;;
;;;
;;;
;;;
;;;
;;;
;;;
;;;
;;;
;;;
;;;
;;;
;;;
;;;
;;;
;;;
;;;
;;;
;;;
;;;
;;;
;;;
;;;
;;;
;;;
;;;
;;;
;;;
;;;
;;;
;;;
;;;
;;;
;;;
;;;
;;;
;;;
;;;
;;;
;;;
;;;
;;;
;;;
;;;
;;;
;;;
;;;
;;;
;;;
;;;
;;;
;;;
;;;
;;;
;;;
;;;
;;;
;;;
;;;
;;;
;;;
;;;
;;;
;;;
;;;
;;;
;;;
;;;
;;;
;;;
;;;
;;;
;;;
;;;
;;;
;;;
;;;
;;;
;;;
;;;
;;;
;;;
;;;
;;;
;;;
;;;
;;;
;;;
;;;
;;;
;;;
;;;
;;;
;;;
;;;
;;;
;;;
;;;
;;;
;;;
;;;
;;;
;;;
;;;
;;;
;;;
;;;
;;;
;;;
;;;
;;;
;;;
;;;
;;;
;;;
;;;
;;;
;;;
;;;
;;;
;;;
;;;
;;;
;;;
;;;
;;;
;;;
;;;
;;;
;;;
;;;
;;;
;;;
;;;
;;;
;;;
;;;
;;;
;;;
;;;
;;;
;;;
;;;
;;;
;;;
;;;
;;;
;;;
;;;
;;;
;;;
;;;
;;;
;;;
;;;
;;;
;;;
;;;
;;;
;;;
;;;
;;;
;;;
;;;
;;;
;;;
;;;
;;;
;;;
;;;
;;;
;;;
;;;
;;;
;;;
;;;
;;;
;;;
;;;
;;;
;;;
;;;
;;;
;;;
;;;
;;;
;;;
;;;
;;;
;;;
;;;
;;;
;;;
;;;
;;;
;;;
;;;
;;;
;;;
;;;
;;;
;;;
;;;
;;;
;;;
;;;
;;;
;;;
;;;
;;;
;;;
;;;
;;;
;;;
;;;
;;;
;;;
;;;
;;;
;;;
;;;
;;;
;;;
;;;
;;;
;;;
;;;
;;;
;;;
;;;
;;;
;;;
;;;
;;;
;;;
;;;
;;;
;;;
;;;
;;;
;;;
;;;
;;;
;;;
;;;
;;;
;;;
;;;
;;;
;;;
;;;
;;;
;;;
;;;
;;;
;;;
;;;
;;;
;;;
;;;
;;;
;;;
;;;
;;;
;;;
;;;
;;;
;;;
;;;
;;;
;;;
;;;
;;;
;;;
;;;
;;;
;;;
;;;
;;;
;;;
;;;
;;;
;;;
;;;
;;;
;;;
;;;
;;;
;;;
;;;
;;;
;;;
;;;
;;;
;;;
;;;
;;;
;;;
;;;
;;;
;;;
;;;
;;;
;;;
;;;
;;;
;;;
;;;
;;;
;;;
;;;
;;;
;;;
;;;
;;;
;;;
;;;
;;;
;;;
;;;
;;;
;;;
;;;
;;;
;;;
;;;
;;;
;;;
;;;
;;;
;;;
;;;
;;;
;;;
;;;
;;;
;;;
;;;
;;;
;;;
;;;
;;;
;;;
;;;
;;;
;;;
;;;
;;;
;;;
;;;
;;;
;;;
;;;
;;;
;;;
;;;
;;;
;;;
;;;
;;;
;;;
;;;
;;;
;;;
;;;
;;;
;;;
;;;
;;;
